EPOCH	TIMESTAMP	BAD_EPOCHS	LEARNING_RATE	TRAIN_LOSS	DEV_LOSS	DEV_PRECISION	DEV_RECALL	DEV_F1	DEV_ACCURACY
1	23:46:59	4	0.0000	0.003930532518670505	0.003089260309934616	0.0	0.0	0.0	0.0
2	23:47:11	4	0.0000	0.0012542767537292623	0.0018592036794871092	0.234	0.0343	0.0598	0.0332
3	23:47:24	4	0.0000	0.0008500787192243505	0.001443058019503951	0.4923	0.1994	0.2838	0.181
4	23:47:37	4	0.0000	0.0005751733512953373	0.0012526841601356864	0.5645	0.2181	0.3146	0.2018
5	23:47:50	4	0.0000	0.0004117034319081268	0.0012429577764123678	0.4772	0.3583	0.4093	0.289
6	23:48:03	4	0.0001	0.0002916184064585823	0.0012627439573407173	0.5724	0.2586	0.3562	0.2368
7	23:48:16	4	0.0001	0.00022934790233647417	0.001250804984010756	0.5965	0.3178	0.4146	0.2837
8	23:48:29	4	0.0001	0.000187919770111364	0.001253103488124907	0.5714	0.2492	0.3471	0.2271
9	23:48:42	4	0.0001	0.00015137265298298923	0.001161313964985311	0.5261	0.4081	0.4596	0.3325
10	23:48:54	4	0.0001	0.0001344652255561059	0.0012447397457435727	0.5585	0.3271	0.4126	0.2881
11	23:49:07	4	0.0001	0.00011583122340470764	0.001251036417670548	0.6644	0.3022	0.4154	0.2751
12	23:49:20	4	0.0001	0.0001326767232280123	0.0012306233402341604	0.627	0.3614	0.4585	0.3229
13	23:49:33	4	0.0001	0.00012427462632175445	0.0015005769673734903	0.681	0.2461	0.3616	0.2335
14	23:49:46	4	0.0001	9.731021865997248e-05	0.001347825862467289	0.6387	0.3084	0.416	0.2882
15	23:49:59	4	0.0001	8.199333927159792e-05	0.001389133045449853	0.6972	0.3084	0.4276	0.2904
16	23:50:12	4	0.0001	7.431299560035073e-05	0.0013536653714254498	0.6	0.3084	0.4074	0.273
17	23:50:25	4	0.0001	6.430620787696955e-05	0.0013797179562970996	0.5648	0.3396	0.4241	0.2961
18	23:50:37	4	0.0001	5.839553952711208e-05	0.0015569399110972881	0.7474	0.2212	0.3413	0.216
19	23:50:50	4	0.0001	4.998380002972785e-05	0.0013861379120498896	0.6692	0.2773	0.3921	0.2568
20	23:51:03	4	0.0001	4.438352600623867e-05	0.0013269492192193866	0.6852	0.3458	0.4596	0.3186
21	23:51:16	4	0.0001	3.748947172112794e-05	0.0013977320631965995	0.6818	0.2804	0.3974	0.262
22	23:51:29	4	0.0001	4.451203921532626e-05	0.001419848995283246	0.6442	0.3271	0.4339	0.2991
23	23:51:42	4	0.0001	4.149229453732039e-05	0.0014879325171932578	0.6429	0.2523	0.3624	0.2358
24	23:51:55	4	0.0001	3.5655347621734346e-05	0.001393762999214232	0.6301	0.3396	0.4413	0.3072
25	23:52:08	4	0.0001	3.458528439218133e-05	0.0014926069416105747	0.7279	0.3084	0.4333	0.2883
26	23:52:21	4	0.0001	3.14936192494901e-05	0.0013968688435852528	0.697	0.3583	0.4733	0.3294
27	23:52:33	4	0.0001	3.143830533849164e-05	0.0015416617970913649	0.7339	0.2835	0.409	0.2683
28	23:52:46	4	0.0001	3.045781749099421e-05	0.001459990395233035	0.6584	0.3302	0.4398	0.3056
29	23:52:59	4	0.0001	3.359490012823835e-05	0.0014259726740419865	0.6711	0.3178	0.4313	0.2917
30	23:53:12	4	0.0001	3.11676400032482e-05	0.001414614962413907	0.6932	0.3801	0.4909	0.351
31	23:53:25	4	0.0001	2.4212408140275914e-05	0.0015736559871584177	0.7008	0.2773	0.3973	0.2606
32	23:53:38	4	0.0001	2.66170504253851e-05	0.001405476126819849	0.6614	0.3894	0.4902	0.3547
33	23:53:51	4	0.0001	3.124833934620882e-05	0.0016357682179659605	0.7222	0.2835	0.4072	0.2689
34	23:54:04	4	0.0001	2.9614905970991293e-05	0.0015692180022597313	0.7083	0.3178	0.4387	0.2991
35	23:54:16	4	0.0001	2.4177027416208737e-05	0.0015338277444243431	0.6974	0.3302	0.4482	0.3065
36	23:54:29	4	0.0001	2.5294384610850033e-05	0.0014609101926907897	0.7086	0.3333	0.4534	0.3142
37	23:54:42	4	0.0001	2.393574460584347e-05	0.0015746676363050938	0.6821	0.3209	0.4364	0.3006
38	23:54:55	4	0.0001	2.1187939009892343e-05	0.0014759214827790856	0.7007	0.3209	0.4402	0.2964
39	23:55:08	4	0.0001	2.186147390045217e-05	0.0015681851655244827	0.7181	0.3333	0.4553	0.3104
40	23:55:21	4	0.0001	2.1246417684819308e-05	0.0014060973189771175	0.6257	0.3489	0.448	0.3169
41	23:55:34	4	0.0001	2.1897645995430018e-05	0.0014672479592263699	0.6611	0.3707	0.475	0.3382
42	23:55:47	4	0.0001	2.1131918410991935e-05	0.0015671945875510573	0.7113	0.3146	0.4363	0.2948
43	23:55:59	4	0.0001	2.3774004038211954e-05	0.001643087132833898	0.7519	0.3022	0.4311	0.2883
44	23:56:12	4	0.0001	1.9371930064188535e-05	0.001473976531997323	0.716	0.3614	0.4803	0.3353
45	23:56:25	4	0.0001	2.2814759910769613e-05	0.0015331649919971824	0.7117	0.3614	0.4793	0.3353
46	23:56:38	4	0.0001	2.4640244622952616e-05	0.0016073223669081926	0.7183	0.3178	0.4406	0.2973
47	23:56:51	4	0.0001	1.7716915281192527e-05	0.0016616478096693754	0.7333	0.3084	0.4342	0.2909
48	23:57:04	4	0.0001	1.7904388950284317e-05	0.0016006779624149203	0.7153	0.3209	0.443	0.304
49	23:57:17	4	0.0001	1.8472372104188068e-05	0.0015205673407763243	0.6845	0.3583	0.4703	0.3314
50	23:57:29	4	0.0001	1.6982771597631516e-05	0.001689793774858117	0.752	0.2928	0.4215	0.2783
51	23:57:42	4	0.0001	1.774546636287384e-05	0.0016206968575716019	0.7315	0.3396	0.4638	0.3202
52	23:57:55	4	0.0001	1.8683386366721986e-05	0.0014589654747396708	0.6667	0.3738	0.479	0.3441
53	23:58:08	4	0.0001	1.7896462193284275e-05	0.0015294947661459446	0.7035	0.3769	0.4909	0.3451
54	23:58:21	4	0.0001	1.796924845870295e-05	0.001536152558401227	0.7239	0.3676	0.4876	0.3413
55	23:58:34	4	0.0001	1.855698802748697e-05	0.0016994932666420937	0.7113	0.3146	0.4363	0.2943
56	23:58:46	4	0.0001	1.863884301109767e-05	0.0016478748293593526	0.7361	0.3302	0.4559	0.3112
57	23:58:59	4	0.0000	1.546870652835029e-05	0.001628486206755042	0.6846	0.3178	0.434	0.2946
58	23:59:12	4	0.0000	1.4497506493192572e-05	0.0016264724545180798	0.707	0.3458	0.4644	0.3224
59	23:59:25	4	0.0000	1.6479145793439678e-05	0.0015709601575508714	0.6975	0.352	0.4679	0.3274
60	23:59:38	4	0.0000	1.4707852045858065e-05	0.0016627463046461344	0.7027	0.324	0.4435	0.3012
61	23:59:51	4	0.0000	1.5633858607348845e-05	0.001569820218719542	0.6964	0.3645	0.4785	0.3383
62	00:00:04	4	0.0000	1.4488695160075194e-05	0.0016445539658889174	0.6937	0.3458	0.4615	0.3205
63	00:00:16	4	0.0000	1.5174137255716538e-05	0.001660193083807826	0.6987	0.3396	0.457	0.3164
64	00:00:29	4	0.0000	1.4999920982739867e-05	0.0016729302005842328	0.7226	0.3489	0.4706	0.3263
65	00:00:42	4	0.0000	1.4300603748670653e-05	0.0016909510595723987	0.7152	0.3364	0.4576	0.3153
66	00:00:55	4	0.0000	1.4856626672722129e-05	0.0016281316056847572	0.7099	0.3583	0.4762	0.3343
67	00:01:08	4	0.0000	1.5228233740426063e-05	0.0016621510731056333	0.7215	0.3551	0.476	0.3323
68	00:01:21	4	0.0000	1.3568790653949726e-05	0.0016622173134237528	0.7099	0.3583	0.4762	0.3333
69	00:01:34	4	0.0000	1.4893076109361004e-05	0.0016880816547200084	0.7233	0.3583	0.4792	0.3363
70	00:01:47	4	0.0000	1.4015655156622549e-05	0.00168686977121979	0.7019	0.352	0.4689	0.3274
71	00:02:00	4	0.0000	1.2642390753852539e-05	0.001708913128823042	0.7325	0.3583	0.4812	0.3363
72	00:02:13	4	0.0000	1.4441636211440116e-05	0.001746108871884644	0.7123	0.324	0.4454	0.3033
73	00:02:25	4	0.0000	1.5298517984883107e-05	0.0017665538471192122	0.7413	0.3302	0.4569	0.3102
74	00:02:38	4	0.0000	1.4794694779007053e-05	0.0017004010733217	0.7124	0.3396	0.4599	0.3174
75	00:02:51	4	0.0000	1.532644619839938e-05	0.0016646706499159336	0.7205	0.3614	0.4813	0.3353
76	00:03:04	4	0.0000	1.262817582455959e-05	0.0016986671835184097	0.7019	0.352	0.4689	0.3284
77	00:03:17	4	0.0000	1.4913219940983819e-05	0.0017053114715963602	0.7134	0.3489	0.4686	0.3234
78	00:03:30	4	0.0000	1.4786612141259669e-05	0.0017558520194143057	0.72	0.3364	0.4586	0.3144
79	00:03:43	4	0.0000	1.4571998789335804e-05	0.0017337072640657425	0.7333	0.3427	0.4671	0.3193
80	00:03:56	4	0.0000	1.446741016593867e-05	0.0017634452087804675	0.7237	0.3427	0.4651	0.3213
81	00:04:08	4	0.0000	1.315233934780344e-05	0.0017543809954077005	0.7181	0.3333	0.4553	0.3133
82	00:04:21	4	0.0000	1.4696799193010111e-05	0.00166338833514601	0.7126	0.3707	0.4877	0.3452
83	00:04:34	4	0.0000	1.4403636395672548e-05	0.0017338587203994393	0.7134	0.3489	0.4686	0.3273
84	00:04:47	4	0.0000	1.2844157023884819e-05	0.0017249727388843894	0.7115	0.3458	0.4654	0.3243
85	00:05:00	4	0.0000	1.3229103083260301e-05	0.0016898132162168622	0.7134	0.3645	0.4825	0.3403
86	00:05:13	4	0.0000	1.3115242071303209e-05	0.0017670802772045135	0.7208	0.3458	0.4674	0.3253
87	00:05:26	4	0.0000	1.3752897676178467e-05	0.0017010800074785948	0.7073	0.3614	0.4784	0.3363
88	00:05:39	4	0.0000	1.319862070750596e-05	0.001752369338646531	0.7115	0.3458	0.4654	0.3243
89	00:05:52	4	0.0000	1.2121586870332844e-05	0.0017449917504563928	0.7152	0.352	0.4718	0.3293
90	00:06:05	4	0.0000	1.2055515193479479e-05	0.0017254764679819345	0.716	0.3614	0.4803	0.3373
91	00:06:18	4	0.0000	1.2677074455639746e-05	0.0017419029027223587	0.7188	0.3583	0.4782	0.3353
92	00:06:30	4	0.0000	1.3779728719227901e-05	0.001735773286782205	0.7143	0.3583	0.4772	0.3333
93	00:06:43	4	0.0000	1.4886373618897476e-05	0.0017270002281293273	0.7205	0.3614	0.4813	0.3373
94	00:06:56	4	0.0000	1.4268988878158226e-05	0.0017535971710458398	0.725	0.3614	0.4823	0.3383
95	00:07:09	4	0.0000	1.2949908532926242e-05	0.0017507631564512849	0.7233	0.3583	0.4792	0.3353
96	00:07:22	4	0.0000	1.3289449914749944e-05	0.001745819579809904	0.7296	0.3614	0.4833	0.3353
97	00:07:35	4	0.0000	1.4613010322510916e-05	0.0017586391186341643	0.7233	0.3583	0.4792	0.3353
98	00:07:48	4	0.0000	1.3594057403890437e-05	0.0017599578713998199	0.7278	0.3583	0.4802	0.3363
99	00:08:01	4	0.0000	1.2326462946754032e-05	0.0017614588141441345	0.7215	0.3551	0.476	0.3323
100	00:08:13	4	0.0000	1.1807385997966457e-05	0.0017511799233034253	0.7188	0.3583	0.4782	0.3343